{
    "heading": {
        "value": "React webpack boilerplate"
    },
    "header_filter":{
        "value":"Filters"
    },
    "search":{
        "filter_text": "Selected Filters"
    },
    "filter":["Species" ,"Gender","Origin"]
    
}